1 10 20
100 200 125
201 210 89
900 1000 174
8292 1370 262
8489 3223 262
2339 146 183
2587 9900 262
1103 7708 262
9309 2141 262
688 8297 262
7208 7918 239
8435 5453 262
2 6269 262
4661 8505 262
5001 8008 262
2130 9646 262
953 249 179
3712 8595 262
5393 2798 238
7850 4044 262
7271 7151 195
8305 6816 257
7537 3310 262
1102 8028 262
7967 4598 262
4886 2441 238
9734 5284 262
4665 7173 262
8190 4909 262
5379 193 238
2618 6709 262
4537 9122 262
4612 7090 262
7650 3861 262
5533 9790 262
6290 9061 257
1784 125 182
7633 4337 262
4958 565 238
4983 3316 238
1984 906 182
9242 1995 262
1318 5891 238
2695 8995 262
2442 570 183
8220 5957 262
6971 4604 262
4360 3069 238
6672 2640 262
5126 2759 238
410 2802 209
1689 3083 217
5863 6606 262
1444 3375 217
1299 3220 217
8099 3855 262
8077 6923 257
1571 1042 182
6652 8909 257
6162 4342 236
2778 1963 209
5515 21 238
6998 4180 262
4846 6703 262
6089 3161 238
9714 4841 262
7888 3451 262
9848 3274 262
7103 7357 195
6207 4924 262
915 2122 182
5425 748 238
8546 4987 262
819 9025 262
9108 702 262
1033 7383 262
4224 4386 215
9317 3649 262
8944 1105 262
7425 4496 262
2206 8647 262
8480 9922 260
6089 8618 262
1919 2784 209
8429 6961 252
6693 5282 262
585 4969 238
70 967 179
8036 8213 190
6959 4605 262
5886 1802 238
2274 1533 183
2589 8637 262
2380 8192 262
3279 54 217
541 3932 238
2010 68 182
8461 2613 262
6937 2038 262
6999 4340 262
209 6651 262
5113 3000 238
5996 7299 262
7430 3743 262
406 743 171
3498 4477 238
6631 4538 262
4102 2702 238
6244 4015 262
7464 6844 257
2785 873 209
4518 3821 215
5969 9761 262
7548 1301 262
4843 1202 238
4294 5765 236
5986 1867 238
293 1113 179
8630 2519 262
3541 8899 262
3492 4242 238
2446 8374 262
300 300 17
1 1 1
962959 695766 525
978403 933465 507
90315 859713 525
58995 513695 470
893143 156539 525
67751 457141 449
270158 355664 441
159339 262822 443
630765 779429 504
435780 330446 449
649119 95987 509
205846 30020 383
932130 159099 525
647057 690641 442
624456 137733 470
560054 856260 525
273303 61674 443
653720 748918 504
426231 588715 470
219870 285057 443
753320 20959 509
561080 86519 470
276918 735694 509
592743 734236 509
360797 538151 470
892015 7154 525
718981 35584 509
591089 627367 509
673249 747186 504
444960 249841 449
851647 31839 525
857926 355921 525
75671 630078 509
540524 512291 439
179317 563407 470
468819 985638 525
889582 200028 525
496728 874749 525
933416 708313 525
429949 553720 470
